{
  "version": "1.0.0.0",
  "newlauncherpath": "https://gitlab.com/cybergamewow/cybergame/-/raw/master/moplauncher/launcher.exe",
  "downloadicon": "https://gitlab.com/cybergamewow/cybergame/-/raw/master/moplauncher/images/download_52px.png",
  "playicon": "https://gitlab.com/cybergamewow/cybergame/-/raw/master/moplauncher/images/play_48px.png",
  "tab1launchericon": "https://gitlab.com/cybergamewow/cybergame/-/raw/master/moplauncher/images/prototype_80px.png",
  "tab2repackicon": "https://gitlab.com/cybergamewow/cybergame/-/raw/master/moplauncher/images/cardboard_box_96px.png",
  "bgvideo": "https://gitlab.com/cybergamewow/cybergame/-/raw/master/moplauncher/video/videoPlane.mp4",
  "exefiles": {
        "Wowtemp.exe":{
          "RemoteUri":"https://gitlab.com/cybergamewow/cybergame/-/raw/master/moplauncher/Wowtemp.exe",
          "Size": 13195776,
          "Md5":"",
          "LocalPath":"Wowtemp.exe"
        },
   },
  "launchersettingspath": "launchersettings.json",/* launcher settings in local folder */
  "interfacelists": {
    "classic": {
      "version": "classic",
      "logourl": "https://gitlab.com/cybergamewow/cybergame/-/raw/master/moplauncher/images/classic.jpg",
      "filelists": {
        "classic.MPQ":{
          "RemoteUri":"https://gitlab.com/cybergamewow/cybergame/-/raw/master/moplauncher/files/classic.MPQ",
          "Size": 6284995,
          "Md5":"",
          "LocalPath":"wow-update-base-90000.MPQ"
        },
      },
      "tags": [ "mop", "classic" ]
    },
    "tbc":{
      "version": "tbc",
      "logourl": "https://gitlab.com/cybergamewow/cybergame/-/raw/master/moplauncher/images/tbc.jpg",
      "filelists": {
        "tbc.MPQ":{
          "RemoteUri":"https://gitlab.com/cybergamewow/cybergame/-/raw/master/moplauncher/files/tbc.MPQ",
          "Size": 6280733,
          "Md5":"",
          "LocalPath":"wow-update-base-90000.MPQ"
        },
      },
      "tags": [ "mop", "tbc" ]
    },
    "wlk":{
      "version": "wlk",
      "logourl": "https://gitlab.com/cybergamewow/cybergame/-/raw/master/moplauncher/images/wlk.jpg",
      "filelists": {
        "wlk.MPQ":{
          "RemoteUri":"https://gitlab.com/cybergamewow/cybergame/-/raw/master/moplauncher/files/wlk.MPQ",
          "Size": 6276456,
          "Md5":"",
          "LocalPath":"wow-update-base-90000.MPQ"
        },
      },
      "tags": [ "mop", "wlk" ]
    },
     "cata":{
      "version": "cata",
      "logourl": "https://gitlab.com/cybergamewow/cybergame/-/raw/master/moplauncher/images/cata.jpg",
      "filelists": {
        "cata.MPQ":{
          "RemoteUri":"https://gitlab.com/cybergamewow/cybergame/-/raw/master/moplauncher/files/cata.MPQ",
          "Size": 6276453,
          "Md5":"",
          "LocalPath":"wow-update-base-90000.MPQ"
        },
      },
      "tags": [ "mop", "cata" ]
    },
     "mop":{
      "version": "mop",
      "logourl": "https://gitlab.com/cybergamewow/cybergame/-/raw/master/moplauncher/images/mop.jpg",
      "filelists": {
        "mop.MPQ":{
          "RemoteUri":"https://gitlab.com/cybergamewow/cybergame/-/raw/master/moplauncher/files/mop.MPQ",
          "Size": 5797199,
          "Md5":"",
          "LocalPath":"wow-update-base-90000.MPQ"
        },
      },
      "tags": [ "mop"]
    },
    "wod":{
      "version": "wod",
      "logourl": "https://gitlab.com/cybergamewow/cybergame/-/raw/master/moplauncher/images/wod.jpg",
      "filelists": {
        "wod.MPQ":{
          "RemoteUri":"https://gitlab.com/cybergamewow/cybergame/-/raw/master/moplauncher/files/wod.MPQ",
          "Size": 57226458,
          "Md5":"",
          "LocalPath":"wow-update-base-90000.MPQ"
        },
      },
      "tags": [ "mop", "wod" ]
    },
    "legion":{
      "version": "legion",
      "logourl": "https://gitlab.com/cybergamewow/cybergame/-/raw/master/moplauncher/images/legion.jpg",
      "filelists": {
        "legion.MPQ":{
          "RemoteUri":"https://gitlab.com/cybergamewow/cybergame/-/raw/master/moplauncher/files/legion.MPQ",
          "Size": 32500068,
          "Md5":"",
          "LocalPath":"wow-update-base-90000.MPQ"
        },
      },
      "tags": [ "mop", "legion" ]
    },
    "bfa":{
      "version": "bfa",
      "logourl": "https://gitlab.com/cybergamewow/cybergame/-/raw/master/moplauncher/images/bfa.jpg",
      "filelists": {
        "bfa.MPQ":{
          "RemoteUri":"https://gitlab.com/cybergamewow/cybergame/-/raw/master/moplauncher/files/bfa.MPQ",
          "Size": 14056746,
          "Md5":"",
          "LocalPath":"wow-update-base-90000.MPQ"
        },
      },
      "tags": [ "mop", "bfa" ]
    },
    "sl":{
      "version": "sl",
      "logourl": "https://gitlab.com/cybergamewow/cybergame/-/raw/master/moplauncher/images/sl.jpg",
      "filelists": {
        "sl.MPQ":{
          "RemoteUri":"https://gitlab.com/cybergamewow/cybergame/-/raw/master/moplauncher/files/sl.MPQ",
          "Size": 12938896,
          "Md5":"",
          "LocalPath":"wow-update-base-90000.MPQ"
        },
      },
      "tags": [ "mop", "sl" ]
    }
  },
  "repacklists": {
    "vmangos": {
      "version": "classic",
      "logourl": "https://gitlab.com/cybergamewow/cybergame/-/raw/master/moplauncher/images/classic.jpg",
      "filelists": {
        "vmangos.zip":{
          "RemoteUri":"https://github.com/coolzoom/vmangos-pack/releases/download/repack-latest/repack.zip",
          "Size": 1100486002,
          "Md5":"0245A7670AF181916DA53667B062B182",
          "LocalPath":"vmangos.zip"
        }
        
        },/* download to local repack folder, only filename is needed*/

      "tags": [ "vmangos", "classic" ]
    } 
  },
  "lang": {

     "title": {
      "cn": "Mop换界面登陆器",
      "en": "Mop Interface Mod launcher"
      },
     "download": {
      "cn": "下载",
      "en": "Download"
      },
      "settings": {
      "cn": "设置",
      "en": "Settings"
      },
      "save": {
      "cn": "保存",
      "en": "Save"
      },
      "modify": {
      "cn": "修改",
      "en": "Modify"
      },
      "choosewowdir": {
      "cn": "请选择wow文件夹",
      "en": "Please select wow directory"
      },
      "exit": {
      "cn": "退出",
      "en": "Exit"
      },
      "launcherdownload": {
      "cn": "登陆器下载和启动",
      "en": "Launcher Download and Start"
      },
      "repackdownload": {
      "cn": "单机下载和启动",
      "en": "Repack Download and Start"
      },
      "memoryclean": {
      "cn": "清理内存",
      "en": "Memory Clean"
      },
      "clientpath": {
      "cn": "设置客户端地址",
      "en": "Set Client Path"
      },
      "onlinegame": {
      "cn": "联机",
      "en": "Online Game"
      },
      "classic": {
      "cn": "经典旧世",
      "en": "Classic"
      },
      "tbc": {
      "cn": "燃烧的远征",
      "en": "TBC"
      },
      "wlk": {
      "cn": "巫妖王",
      "en": "WLK"
      },
      "cata": {
      "cn": "大灾变",
      "en": "Cata"
      },
      "mop": {
      "cn": "熊猫人",
      "en": "MOP"
      },
      "wod": {
      "cn": "德拉诺",
      "en": "WOD"
      },
      "legion": {
      "cn": "军团再临",
      "en": "Legion"
      },
      "bfa": {
      "cn": "争霸",
      "en": "BFA"
      },
      "sl": {
      "cn": "暗影国度",
      "en": "Shadowland"
      },
    }
}
